-------------------------------------------------------------------------------
Test set: com.vk_web_player.app.CalculatorTest
-------------------------------------------------------------------------------
Tests run: 1, Failures: 0, Errors: 0, Skipped: 0, Time elapsed: 0.155 sec
